[
    {
        "question": "Is there more than one MTTL?",
        "answer": "<i>There is <b>only one </b>MTTL</i>. The MTTL found <a href='https://90cos.gitlab.io/mttl/#/'> here </a> is the current MTTL. More information about the deprecated, static MTTL can be found in the documentation <a href='https://90cos-mttl.90cos.com/documentation'>here</a>."
    },
    {
        "question": "How do I add, remove, or change which KSATs a particular workrole requires?",
        "answer": "You can use the <em>Add KSAT function</em> found on the MTTL page and explain your request. More information is available <a href='https://90cos-mttl.90cos.com/documentation/mttl/contributing-to-the-mttl.html'>here</a>"
    },
    {
        "question": "How do I create a Add/Remove/Modify a KSAT?",
        "answer": "You can use the <em>Add KSAT function</em> found on the MTTL page and explain your request. More information is available <a href='https://90cos-mttl.90cos.com/documentation/mttl/contributing-to-the-mttl.html'>here</a>"
    },
    {
        "question": "I'm a training vendor with offerings that covers some KSATs. How do I show/communicate that to you?",
        "answer": "Visit the MTTL web page and use the <a href='https://90cos-mttl.90cos.com/documentation/mttl/contributing-to-the-mttl.html#submitting-training-and-eval-links'> add training </a> function. <br/> <span style='color:inherit; padding-left:16px;' (click)='contactUs()'> Contact Us</span> - provide links to your product and explain how it meets the requirements"
    },
    {
        "question": "How do I give you feedback on this website?",
        "answer": "The <span style='color:inherit' (click)='contactUs()'> Contact Us</span> function is located at the top right under 'Support'"
    },
    {
        "question": "Who owns this website?",
        "answer": "The American Taxpayer. And more specifically, the CYT flight of the 90th Cyberspace Operations Squadron, in order to prepare tomorrow's Cyber Development Force"
    },
    {
        "question": "What is / who are the 90th Cyberspace Operations Squadron?",
        "answer": "The 90th Cyberspace Operations Squadron  is a key Cyber Development Force enabling tomorrow's operations by delivering cyber capabilities today. To learn more click <a href='https://www.afhra.af.mil/About-Us/Fact-Sheets/Display/Article/862054/90-cyberspace-operations-squadron-afspc/'> here </a>."
    },
    {
        "question": "What is IQT?",
        "answer": "IQT or Initial Qualification Training is Training needed to qualify for basic cybercrew duties in an assigned crew position for a specific weapon system, without regard for the unit’s operational mission - <a href='https://static.e-publishing.af.mil/production/1/acc/publication/acci17-202v1/acci17-202v1.pdf'>AFI17-202v1</a> Section 2.1.1"
    }
]